…
## Cross-Tabulation

``` r
# Among Casedef

df_hsi_table %>%
  dplyr::filter(casedef == 1) %>% 
  dplyr::count(age, grade, sex, race_ethnic)
```

    ## # A tibble: 254 x 5
    ##    age   grade sex    race_ethnic                        n
    ##    <fct> <fct> <fct>  <fct>                          <int>
    ##  1 <20   E1-E4 Male   American Indian/Alaskan Native    71
    ##  2 <20   E1-E4 Male   Asian/Pacific Islander           342
    ##  3 <20   E1-E4 Male   Hispanic                        1041
    ##  4 <20   E1-E4 Male   Non-Hispanic Black              1134
    ##  5 <20   E1-E4 Male   Non-Hispanic White              5517
    ##  6 <20   E1-E4 Male   Other                            170
    ##  7 <20   E1-E4 Male   Unknown                          107
    ##  8 <20   E1-E4 Female American Indian/Alaskan Native    19
    ##  9 <20   E1-E4 Female Asian/Pacific Islander            97
    ## 10 <20   E1-E4 Female Hispanic                         290
    ## # ... with 244 more rows

``` r
# age and grade

df_hsi_table %>%
  dplyr::filter(casedef == 1) %>% 
  dplyr::count(age, grade)
```

    ## # A tibble: 26 x 3
    ##    age   grade           n
    ##    <fct> <fct>       <int>
    ##  1 <20   E1-E4       10374
    ##  2 <20   E5-E9           9
    ##  3 <20   O1-O3/W1-W3     1
    ##  4 20-24 E1-E4       17431
    ##  5 20-24 E5-E9        1466
    ##  6 20-24 O1-O3/W1-W3  1304
    ##  7 25-29 E1-E4        4347
    ##  8 25-29 E5-E9        3168
    ##  9 25-29 O1-O3/W1-W3  1168
    ## 10 25-29 <NA>            1
    ## # ... with 16 more rows
…
``` r
# write_rds(age_grade_crosstab, file = "output/age_grade_crosstab.rds")



# race and service

df_hsi_table %>%
  dplyr::filter(casedef == 1) %>% 
  dplyr::count(service, race_ethnic)
```

    ## # A tibble: 33 x 3
    ##    service race_ethnic                        n
    ##    <fct>   <fct>                          <int>
    ##  1 Army    American Indian/Alaskan Native   185
    ##  2 Army    Asian/Pacific Islander          1181
    ##  3 Army    Hispanic                        2694
    ##  4 Army    Non-Hispanic Black              5548
    ##  5 Army    Non-Hispanic White             15714
    ##  6 Army    Other                            225
    ##  7 Army    Unknown                          401
    ##  8 Navy    American Indian/Alaskan Native    70
    ##  9 Navy    Asian/Pacific Islander           175
    ## 10 Navy    Hispanic                         430
    ## # ... with 23 more rows
…
# Risk Table

``` r
# Sum population

hsi_factors %>%
   mutate(label = if_else(year == max(year), as.character(var), NA_character_),
          Risk = risk * 10000) %>% 
   dplyr::filter(var %in% "<20") %>%  # filter by unique Variable to get one per year
   dplyr::select(year, sum_pop)
```

    ## # A tibble: 22 x 2
    ##    year   sum_pop
    ##    <chr>    <dbl>
    ##  1 1998  1391720.
    ##  2 1999  1361415.
    ##  3 2000  1360724.
    ##  4 2001  1364141.
    ##  5 2002  1390927.
    ##  6 2003  1412824.
    ##  7 2004  1411148.
    ##  8 2005  1376725.
    ##  9 2006  1366274.
    ## 10 2007  1360261.
    ## # ... with 12 more rows

``` r
risk_table <-
  hsi_factors %>%
     mutate(label = if_else(year == max(year), as.character(var), NA_character_),
            Risk = risk * 10000) %>% 
    dplyr::select(year, var, cat, Risk) %>% 
    tidyr::pivot_wider(names_from = c(cat, var), values_from = Risk) 

risk_table
```

    ## # A tibble: 22 x 20
    ##    year  `age_<20` `age_20-24` `age_25-29` `age_30-34` `age_35-39` `age_>=40`
    ##    <chr>     <dbl>       <dbl>       <dbl>       <dbl>       <dbl>      <dbl>
    ##  1 1998       21.0        14.3        9.43        5.38        3.34       3.64
    ##  2 1999       23.2        13.2       10.0         6.12        3.37       2.57
    ##  3 2000       25.4        17.6       12.2         7.75        5.18       3.81
    ##  4 2001       30.9        18.6       12.6         9.75        4.82       3.87
    ##  5 2002       40.1        19.7       14.1         9.63        5.97       3.75
    ##  6 2003       31.0        14.0        9.82        8.00        4.06       2.45
    ##  7 2004       42.5        18.0       13.0         8.68        6.26       4.64
    ##  8 2005       60.3        21.5       13.8        11.1         6.48       5.22
    ##  9 2006       50.1        21.3       12.7         9.14        5.86       5.31
    ## 10 2007       51.8        19.7       11.9         9.55        7.30       4.07
    ## # ... with 12 more rows, and 13 more variables: sex_Male <dbl>,
    ## #   sex_Female <dbl>, `grade_E1-E4` <dbl>, `grade_E5-E9` <dbl>,
    ## #   `grade_O1-O3/W1-W3` <dbl>, `grade_O4-O10/W4-W5` <dbl>, race_White <dbl>,
    ## #   race_Black <dbl>, race_Other <dbl>, service_Army <dbl>, service_Navy <dbl>,
    ## #   `service_Air Force` <dbl>, `service_Marine Corps` <dbl>
…
# O/E Table

oe_table <-
  hsi_factors %>%
     mutate(label = if_else(year == max(year), as.character(var), NA_character_),
            Risk = risk * 10000) %>% 
    dplyr::select(year, var, cat, prop_ratio) %>% 
    tidyr::pivot_wider(names_from = c(cat, var), values_from = prop_ratio) 


oe_table
```

    ## # A tibble: 22 x 20
    ##    year  `age_<20` `age_20-24` `age_25-29` `age_30-34` `age_35-39` `age_>=40`
    ##    <chr>     <dbl>       <dbl>       <dbl>       <dbl>       <dbl>      <dbl>
    ##  1 1998       2.15        1.46       0.968       0.552       0.343      0.374
    ##  2 1999       2.35        1.34       1.02        0.621       0.342      0.260
    ##  3 2000       2.02        1.39       0.967       0.615       0.411      0.303
    ##  4 2001       2.22        1.34       0.910       0.701       0.347      0.278
    ##  5 2002       2.60        1.28       0.915       0.624       0.387      0.243
    ##  6 2003       2.76        1.24       0.874       0.711       0.361      0.218
    ##  7 2004       2.89        1.22       0.883       0.590       0.425      0.315
    ##  8 2005       3.43        1.23       0.787       0.634       0.369      0.297
    ##  9 2006       3.10        1.32       0.787       0.566       0.363      0.329
    ## 10 2007       3.32        1.26       0.761       0.611       0.467      0.261
    ## # ... with 12 more rows, and 13 more variables: sex_Male <dbl>,
    ## #   sex_Female <dbl>, `grade_E1-E4` <dbl>, `grade_E5-E9` <dbl>,
    ## #   `grade_O1-O3/W1-W3` <dbl>, `grade_O4-O10/W4-W5` <dbl>, race_White <dbl>,
    ## #   race_Black <dbl>, race_Other <dbl>, service_Army <dbl>, service_Navy <dbl>,
    ## #   `service_Air Force` <dbl>, `service_Marine Corps` <dbl>
…
df_bmi   
```

    ## # A tibble: 30,585 x 12
    ##    source age   sex   race_ethnic service grade hsi     bmi casedef bmi_cat
    ##    <fct>  <fct> <fct> <fct>       <fct>   <fct> <fct> <dbl> <fct>   <fct>  
    ##  1 Out-P~ 20-24 Male  Non-Hispan~ Army    E1-E4 Heat~  23.9 1       normal 
    ##  2 In-Pa~ 20-24 Male  Non-Hispan~ Army    O1-O~ Heat~  NA   1       <NA>   
    ##  3 Out-P~ 20-24 Fema~ Non-Hispan~ Marine~ E1-E4 Heat~  25.4 1       overwe~
    ##  4 Out-P~ 20-24 Male  Non-Hispan~ Marine~ E1-E4 Heat~  30.0 1       overwe~
    ##  5 Out-P~ 20-24 Male  American I~ Marine~ E1-E4 Heat~  28.3 1       overwe~
    ##  6 Out-P~ 20-24 Male  Non-Hispan~ Navy    E1-E4 Heat~  23.2 1       normal 
    ##  7 Out-P~ 20-24 Male  Non-Hispan~ Marine~ E1-E4 Heat~  30.9 1       obese  
    ##  8 Out-P~ <20   Male  Non-Hispan~ Marine~ E1-E4 Heat~  30.0 1       overwe~
    ##  9 Out-P~ 20-24 Fema~ Hispanic    Navy    E1-E4 Heat~  18.2 1       underw~
    ## 10 Out-P~ 20-24 Male  Non-Hispan~ Marine~ E1-E4 Heat~  20.3 1       normal 
    ## # ... with 30,575 more rows, and 2 more variables: year <dbl>, d_event <date>
…
